Jesse Onland - Homeworlds Openings
…
When players’ homeworlds are one step away from one another (i.e. connected), this is known as a “microverse”. If they are two steps away, that’s a “small universe”, and if they are three steps away, that’s a “large universe”.

In addition to their homeworld stars, each player selects a pyramid to be their first ship. The rest of the pieces become the bank from which new stars and ships are taken and to which destroyed stars and ships are returned.

Data

Babamots compiled information from 4928 games of Homeworlds played on BoardGameArena and provided a first player win rate and a count of observations for each combination of first and second player homeworld sizes. Draws were counted as half a win for each player. Only games that lasted at least eight turns for each player were included.

Code

read_csv("raw_data.csv") -> raw_data

raw_data

# A tibble: 36 × 4
   p1_wr     n p1_hw p2_hw
   <dbl> <dbl> <chr> <chr>
 1 0.175    20 SS    SM   
 2 0.2      10 SS    ML   
 3 0.25      4 SS    LL   
 4 0.292    12 SS    SL   
 5 0.385    13 SL    MM   
 6 0.393    28 ML    MM   
 7 0.408    71 SM    MM   
 8 0.409    22 ML    SS   
 9 0.441    34 ML    LL   
10 0.449   476 SL    SM   
# ℹ 26 more rows
…
homeworlds_openings

# A tibble: 36 × 14
# Rowwise: 
   p1_wr     n p1_hw p2_hw p1_wins p2_wins ci_lower ci_upper formatted_ci
   <dbl> <dbl> <ord> <ord>   <dbl>   <dbl>    <dbl>    <dbl> <chr>       
 1 0.643   300 SM    SM     193.   107.       0.596    0.687 60-69%      
 2 0.486   590 SM    SL     287.   303.       0.452    0.520 45-52%      
 3 0.495   813 SM    ML     402.   411.       0.466    0.524 47-52%      
 4 0.667     3 SM    SS       2.00   0.999    0.249    0.903 25-90%      
 5 0.408    71 SM    MM      29.0   42.0      0.318    0.506 32-51%      
 6 0.51     52 SM    LL      26.5   25.5      0.398    0.620 40-62%      
 7 0.449   476 SL    SM     214.   262.       0.412    0.487 41-49%      
 8 0.604   130 SL    SL      78.5   51.5      0.532    0.671 53-67%      
 9 0.502   430 SL    ML     216.   214.       0.462    0.542 46-54%      
10 0.667     6 SL    SS       4.00   2.00     0.342    0.871 34-87%      
# ℹ 26 more rows
# ℹ 5 more variables: ci_fontface <chr>, universe_size <ord>, prob_fav <dbl>,
#   formatted_prob_fav <chr>, prob_fav_fontface <chr>
…
